{
   "nodes":[
      {
         "ip":"172.16.0.100",
         "mac":"00:0C:29:87:45:C1",
         "id":"node1",
         "latence":"0.00021s"
      },
      {
         "ip":"172.16.0.101",
         "mac":"00:0C:29:54:23:53",
         "id":"node2",
         "latence":"0.00014s"
      },
      {
         "ip":"172.16.0.102",
         "mac":"00:0C:29:54:12:43",
         "id":"node3",
         "latence":"0.00017s"
      },
      {
         "ip":"172.16.0.103",
         "mac":"00:0C:29:54:13:23",
         "id":"node4",
         "latence":"0.00019s"
      },
      {
         "ip":"172.16.0.104",
         "mac":"00:0C:29:A6:70:F2",
         "id":"node5",
         "latence":"0.00024s"
      }
   ],
   "links":[
      {
         "target":"node4",
         "source":"node2"
      },
      {
         "target":"node1",
         "source":"node4"
      },
      {
         "target":"node3",
         "source":"node2"
      }
   ]
}